{
	"info": {
		"_postman_id": "088224ff-b440-4191-8f7c-05ed016a1dee",
		"name": "Practice Collection",
		"schema": "https://schema.getpostman.com/json/collection/v2.1.0/collection.json"
	},
	"item": [
		{
			"name": "GET",
			"item": [
				{
					"name": "Get All Users",
					"event": [
						{
							"listen": "test",
							"script": {
								"id": "7e8d9d59-7437-432a-930e-7c2d6eab412e",
								"exec": [
									"console.log(\"Hello World..\");",
									"let urlval=pm.variables.get(\"url\");",
									"console.log(urlval);",
									"pm.variables.set(\"name\", \"Venky\");",
									"console.log(pm.variables.get(\"name\"));",
									"pm.variables.set(\"Address\", \"HYD\");",
									"console.log(pm.variables.get(\"Address\"));",
									"",
									"console.log(pm.globals.get(\"Company\"));",
									""
								],
								"type": "text/javascript"
							}
						}
					],
					"request": {
						"method": "GET",
						"header": [],
						"body": {
							"mode": "raw",
							"raw": ""
						},
						"url": {
							"raw": "{{url}}/api/users?page=2",
							"host": [
								"{{url}}"
							],
							"path": [
								"api",
								"users"
							],
							"query": [
								{
									"key": "page",
									"value": "2"
								}
							]
						}
					},
					"response": []
				},
				{
					"name": "Get Single User",
					"event": [
						{
							"listen": "test",
							"script": {
								"id": "31ff3971-7b54-4903-979c-2f40fb709b9a",
								"exec": [
									"pm.test(\"Verify status code is 200\", function () {",
									"    pm.response.to.have.status(200);",
									"});",
									"pm.test(\"Verify responce time is less than 1500ms\", function () {",
									"    pm.expect(pm.response.responseTime).to.be.below(1500);",
									"});"
								],
								"type": "text/javascript"
							}
						}
					],
					"request": {
						"method": "GET",
						"header": [],
						"body": {
							"mode": "raw",
							"raw": ""
						},
						"url": {
							"raw": "{{url}}/api/users/2",
							"host": [
								"{{url}}"
							],
							"path": [
								"api",
								"users",
								"2"
							]
						}
					},
					"response": []
				},
				{
					"name": "List Of Resources",
					"request": {
						"method": "GET",
						"header": [],
						"body": {
							"mode": "raw",
							"raw": ""
						},
						"url": {
							"raw": "{{url}}/api/unknown",
							"host": [
								"{{url}}"
							],
							"path": [
								"api",
								"unknown"
							]
						}
					},
					"response": [
						{
							"name": "List Of Resources",
							"originalRequest": {
								"method": "GET",
								"header": [],
								"body": {
									"mode": "raw",
									"raw": ""
								},
								"url": {
									"raw": "https://reqres.in/api/unknown",
									"protocol": "https",
									"host": [
										"reqres",
										"in"
									],
									"path": [
										"api",
										"unknown"
									]
								}
							},
							"status": "OK",
							"code": 200,
							"_postman_previewlanguage": "json",
							"header": [
								{
									"key": "Date",
									"value": "Wed, 13 Feb 2019 17:33:14 GMT"
								},
								{
									"key": "Content-Type",
									"value": "application/json; charset=utf-8"
								},
								{
									"key": "Transfer-Encoding",
									"value": "chunked"
								},
								{
									"key": "Connection",
									"value": "keep-alive"
								},
								{
									"key": "X-Powered-By",
									"value": "Express"
								},
								{
									"key": "Access-Control-Allow-Origin",
									"value": "*"
								},
								{
									"key": "ETag",
									"value": "W/\"138-JxfoRpyrgR+3MwPzWk39icdKPEA\""
								},
								{
									"key": "Expect-CT",
									"value": "max-age=604800, report-uri=\"https://report-uri.cloudflare.com/cdn-cgi/beacon/expect-ct\""
								},
								{
									"key": "Server",
									"value": "cloudflare"
								},
								{
									"key": "CF-RAY",
									"value": "4a8909f54be8c3a6-SIN"
								},
								{
									"key": "Content-Encoding",
									"value": "gzip"
								}
							],
							"cookie": [],
							"body": "{\n    \"page\": 1,\n    \"per_page\": 3,\n    \"total\": 12,\n    \"total_pages\": 4,\n    \"data\": [\n        {\n            \"id\": 1,\n            \"name\": \"cerulean\",\n            \"year\": 2000,\n            \"color\": \"#98B2D1\",\n            \"pantone_value\": \"15-4020\"\n        },\n        {\n            \"id\": 2,\n            \"name\": \"fuchsia rose\",\n            \"year\": 2001,\n            \"color\": \"#C74375\",\n            \"pantone_value\": \"17-2031\"\n        },\n        {\n            \"id\": 3,\n            \"name\": \"true red\",\n            \"year\": 2002,\n            \"color\": \"#BF1932\",\n            \"pantone_value\": \"19-1664\"\n        }\n    ]\n}"
						}
					]
				}
			]
		},
		{
			"name": "POST",
			"item": [
				{
					"name": "User Registration",
					"request": {
						"method": "POST",
						"header": [
							{
								"key": "Content-Type",
								"value": "application/json",
								"type": "text"
							}
						],
						"body": {
							"mode": "raw",
							"raw": "{\r\n    \"email\": \"{{email}}\",\r\n    \"password\": \"{{password}}\"\r\n}"
						},
						"url": {
							"raw": "{{qaurl}}/{{endpoint}}",
							"host": [
								"{{qaurl}}"
							],
							"path": [
								"{{endpoint}}"
							]
						}
					},
					"response": []
				}
			]
		}
	],
	"event": [
		{
			"listen": "prerequest",
			"script": {
				"id": "15a86189-882d-4ebe-919d-eaeb84392a8d",
				"type": "text/javascript",
				"exec": [
					"console.log(\"Hello World..\");",
					"let urlval=pm.variables.get(\"url\");",
					"console.log(urlval);",
					"pm.variables.set(\"name\", \"Venky\");",
					"console.log(pm.variables.get(\"name\"));",
					"pm.variables.set(\"Address\", \"HYD\");",
					"console.log(pm.variables.get(\"Address\"));",
					"",
					"console.log(pm.globals.get(\"Company\"));"
				]
			}
		},
		{
			"listen": "test",
			"script": {
				"id": "2d1942a7-87a3-463d-9eee-0f3ad49ba67d",
				"type": "text/javascript",
				"exec": [
					""
				]
			}
		}
	],
	"variable": [
		{
			"id": "272fb2bf-7bee-4138-b67c-f1a3a621d23c",
			"key": "url",
			"value": "https://reqres.in",
			"type": "string"
		}
	]
}